…
    Requesting:
    https://api.waterdata.usgs.gov/ogcapi/v0/collections/time-series-metadata/items?f=json&lang=en-US&skipGeometry=TRUE&limit=10000&bbox=-81.36%2C36.72%2C-80.27%2C37.32&properties=monitoring_location_id,parameter_code,begin,end

``` r
swva_sites <- swva_sites |> filter(str_detect(monitoring_location_id, "USGS-"))

swva_sites
```

    # A tibble: 28 × 4
       monitoring_location_id parameter_code begin               end                
       <chr>                  <chr>          <dttm>              <dttm>             
     1 USGS-03170000          00060          1928-10-01 00:00:00 2026-02-11 00:00:00
     2 USGS-03166800          00060          1976-05-01 00:00:00 1993-09-30 00:00:00
     3 USGS-03168000          00010          2007-01-09 00:00:00 2008-09-29 00:00:00
     4 USGS-03473500          00060          1947-10-01 00:00:00 1989-09-29 00:00:00
     5 USGS-03167000          00010          2006-12-21 00:00:00 2009-06-30 00:00:00
     6 USGS-03166000          00060          1930-04-01 00:00:00 1934-09-29 00:00:00
     7 USGS-03177700          00060          1965-10-01 00:00:00 1980-09-29 00:00:00
     8 USGS-03167000          00060          1908-10-01 00:00:00 2026-02-10 00:00:00
     9 USGS-03175140          00060          1929-10-01 00:00:00 1932-09-29 00:00:00
    10 USGS-03172500          00060          1908-10-01 00:00:00 1916-09-29 00:00:00
    # ℹ 18 more rows
…
